<?xml version="1.0" encoding="UTF-8"?>
<svg width="24px" height="24px" viewBox="0 0 24 24" version="1.1" xmlns="http://www.w3.org/2000/svg" xmlns:xlink="http://www.w3.org/1999/xlink">
    <title>2A91FD81-C781-458E-87B7-683D70F128E7</title>
    <defs>
        <filter color-interpolation-filters="auto" id="filter-1">
            <feColorMatrix in="SourceGraphic" type="matrix" values=""></feColorMatrix>
        </filter>
    </defs>
    <g id="Page-1" stroke="none" stroke-width="1" fill="none" fill-rule="evenodd">
        <g id="Buttons---Project-Genesis" transform="translate(-461.000000, -994.000000)">
            <g id="Group-2" transform="translate(205.000000, 978.000000)">
                <g id="Color" transform="translate(256.000000, 16.000000)" filter="url(#filter-1)">
                    <g transform="translate(3.000000, 2.000000)">
                        <path d="M3.5,5.5297884 C3.77614237,5.5297884 4,5.75364602 4,6.0297884 L4,6.95914995 C4,7.23529232 3.77614237,7.45914995 3.5,7.45914995 L2,7.45914995 L2,18.0706385 L16,18.0706385 L16,7.45914995 L14.5,7.45914995 C14.2238576,7.45914995 14,7.23529232 14,6.95914995 L14,6.0297884 C14,5.75364602 14.2238576,5.5297884 14.5,5.5297884 L17.5,5.5297884 C17.7761424,5.5297884 18,5.75364602 18,6.0297884 L18,19.5 C18,19.7761424 17.7761424,20 17.5,20 L0.5,20 C0.223857625,20 3.38176876e-17,19.7761424 0,19.5 L0,6.0297884 C-3.38176876e-17,5.75364602 0.223857625,5.5297884 0.5,5.5297884 L3.5,5.5297884 Z M9.03837412,-0.407995807 C9.41173607,-0.397733182 9.77166436,-0.157550913 9.96468077,0.017763122 L13.0206616,3.33605528 C13.199733,3.53049743 13.1965168,3.83073016 13.0133209,4.02129149 L12.2590186,4.80592092 C12.0676415,5.00499236 11.7511205,5.01122991 11.5520491,4.81985287 L11.5369546,4.80470764 L9.99429989,3.19012696 L9.96634365,11.6837954 C9.96542437,11.9592849 9.74183747,12.182127 9.46634643,12.182127 L8.53699045,12.182127 C8.29153056,12.182127 8.08738208,12.0052518 8.04504612,11.7720026 L8.03699045,11.682127 L8.03699323,11.6804585 L8.06429989,3.18312696 L6.46567633,4.81485387 C6.27245366,5.01213441 5.95588826,5.01542395 5.75860772,4.82220128 L5.74881942,4.8123442 L4.98686258,4.02341023 C4.80209486,3.8321008 4.79943214,3.52962637 4.98080325,3.33509378 L8.07369335,0.017763122 C8.25463873,-0.19325337 8.65317705,-0.418583745 9.03837412,-0.407995807 Z" id="Combined-Shape" fill="#171725" fill-rule="nonzero"></path>
                    </g>
                </g>
            </g>
        </g>
    </g>
</svg>