<?xml version="1.0" encoding="UTF-8"?>
<svg width="24px" height="24px" viewBox="0 0 24 24" version="1.1" xmlns="http://www.w3.org/2000/svg" xmlns:xlink="http://www.w3.org/1999/xlink">
    <title>56FC7CBC-1BD5-48E5-9E6B-D65552E36940</title>
    <defs>
        <filter color-interpolation-filters="auto" id="filter-1">
            <feColorMatrix in="SourceGraphic" type="matrix" values=""></feColorMatrix>
        </filter>
        <rect id="path-2" x="0" y="0" width="20" height="18"></rect>
    </defs>
    <g id="Page-1" stroke="none" stroke-width="1" fill="none" fill-rule="evenodd">
        <g id="Buttons---Project-Genesis" transform="translate(-501.000000, -994.000000)">
            <g id="Group-2" transform="translate(205.000000, 978.000000)">
                <g id="State" transform="translate(296.000000, 16.000000)" filter="url(#filter-1)">
                    <g transform="translate(2.000000, 3.000000)">
                        <g id="Oval-Copy">
                            <mask id="mask-3" fill="white">
                                <use xlink:href="#path-2"></use>
                            </mask>
                            <g id="Mask"></g>
                            <path d="M10,11 C14.9705627,11 19,15.0294373 19,20 C19,24.9705627 14.9705627,29 10,29 C5.02943725,29 1,24.9705627 1,20 C1,15.0294373 5.02943725,11 10,11 Z M10,13 C6.13400675,13 3,16.1340068 3,20 C3,23.8659932 6.13400675,27 10,27 C13.8659932,27 17,23.8659932 17,20 C17,16.1340068 13.8659932,13 10,13 Z" fill="#171725" fill-rule="nonzero" mask="url(#mask-3)"></path>
                        </g>
                        <path d="M10,0 C12.7614237,0 15,2.23857625 15,5 C15,7.76142375 12.7614237,10 10,10 C7.23857625,10 5,7.76142375 5,5 C5,2.23857625 7.23857625,0 10,0 Z M10,2 C8.34314575,2 7,3.34314575 7,5 C7,6.65685425 8.34314575,8 10,8 C11.6568542,8 13,6.65685425 13,5 C13,3.34314575 11.6568542,2 10,2 Z" id="Oval" fill="#171725" fill-rule="nonzero"></path>
                    </g>
                </g>
            </g>
        </g>
    </g>
</svg>