{
"getJwtTokenPath":"/var/tokens",
"getJwtClientSecret":"{076ed55c8ac87f9dc73043a80a80f3c6563398f5688e68c0f8c0eb5fa546e5177d40bf9405189255a738687a86ff42fcb89f3b0fe62c2eac9d2ff208c366b10b}",
"getEncKey":"F0zGx1Z4QypilOMmtzBEKA==",
"getJwtClientId":"{2efa15341b54de7eb9177548f586617d6a7c197efaeac1b461f09569560101c470bf3bb9cab65fa6e5c73236681079f280b1a111f2d52ff752d01b2a00c54c28}",
"getJwtTokenUrl":"https://partner-apigw-uat.techcombank.com.vn/common-security-auth-services/v1/jwt-token"
}
