<svg width="25" height="24" viewBox="0 0 25 24" fill="none" xmlns="http://www.w3.org/2000/svg">
<path fill-rule="evenodd" clip-rule="evenodd" d="M15.8033 4.73756C15.8033 6.95855 17.6065 8.75902 19.8307 8.75902C20.0756 8.75782 20.3199 8.73431 20.5605 8.68878V16.6615C20.5605 20.0156 18.582 22 15.223 22H7.90691C4.53905 22 2.56055 20.0156 2.56055 16.6615V9.3561C2.56055 6.00195 4.53905 4 7.90691 4H15.8737C15.8264 4.243 15.8029 4.49001 15.8033 4.73756ZM13.7105 14.8966L16.5684 11.2088V11.1912C16.813 10.8625 16.7506 10.3989 16.4277 10.1463C16.2714 10.0257 16.0728 9.97345 15.8772 10.0016C15.6817 10.0297 15.5059 10.1358 15.3901 10.2956L12.9807 13.3951L10.2371 11.2351C10.0805 11.1131 9.88125 11.0592 9.68436 11.0856C9.48746 11.1121 9.30953 11.2166 9.19074 11.3756L6.23617 15.1863C6.13232 15.3158 6.07641 15.4771 6.07789 15.6429C6.06074 15.9781 6.27242 16.2826 6.59292 16.3838C6.91343 16.485 7.26192 16.3573 7.44086 16.0732L9.91179 12.8771L12.6553 15.0283C12.8114 15.1541 13.0119 15.2111 13.2109 15.1863C13.41 15.1615 13.5903 15.0569 13.7105 14.8966Z" fill="#212121"/>
<circle cx="20.0605" cy="4.5" r="2.5" fill="#ED1B24"/>
</svg>
