<svg width="24" height="25" viewBox="0 0 24 25" fill="none" xmlns="http://www.w3.org/2000/svg">
<path d="M21.4274 2.67937C20.9274 2.16837 20.1874 1.97937 19.4974 2.17937L3.40742 6.82837C2.67942 7.03037 2.16342 7.60737 2.02442 8.33937C1.88242 9.08537 2.37842 10.0334 3.02642 10.4294L8.05742 13.5014C8.57342 13.8174 9.23942 13.7384 9.66642 13.3104L15.4274 7.54937C15.7174 7.24837 16.1974 7.24837 16.4874 7.54937C16.7774 7.83837 16.7774 8.30937 16.4874 8.60937L10.7164 14.3704C10.2884 14.7984 10.2084 15.4624 10.5234 15.9794L13.5974 21.0294C13.9574 21.6284 14.5774 21.9694 15.2574 21.9694C15.3374 21.9694 15.4274 21.9694 15.5074 21.9584C16.2874 21.8594 16.9074 21.3284 17.1374 20.5784L21.9074 4.60937C22.1174 3.92937 21.9274 3.18937 21.4274 2.67937Z" fill="white"/>
<path opacity="0.4" fill-rule="evenodd" clip-rule="evenodd" d="M3.01147 16.9089C2.81947 16.9089 2.62747 16.8359 2.48147 16.6889C2.18847 16.3959 2.18847 15.9219 2.48147 15.6289L3.84647 14.2629C4.13947 13.9709 4.61447 13.9709 4.90747 14.2629C5.19947 14.5559 5.19947 15.0309 4.90747 15.3239L3.54147 16.6889C3.39547 16.8359 3.20347 16.9089 3.01147 16.9089ZM6.77267 18.1013C6.58067 18.1013 6.38867 18.0283 6.24267 17.8813C5.94967 17.5883 5.94967 17.1143 6.24267 16.8213L7.60767 15.4553C7.90067 15.1633 8.37567 15.1633 8.66867 15.4553C8.96067 15.7483 8.96067 16.2233 8.66867 16.5163L7.30267 17.8813C7.15667 18.0283 6.96467 18.1013 6.77267 18.1013ZM7.02637 21.6693C7.17237 21.8163 7.36437 21.8893 7.55637 21.8893C7.74837 21.8893 7.94037 21.8163 8.08637 21.6693L9.45237 20.3043C9.74437 20.0113 9.74437 19.5363 9.45237 19.2433C9.15937 18.9513 8.68437 18.9513 8.39137 19.2433L7.02637 20.6093C6.73337 20.9023 6.73337 21.3763 7.02637 21.6693Z" fill="white"/>
</svg>
