<?xml version="1.0" encoding="UTF-8"?>
<svg width="24px" height="24px" viewBox="0 0 24 24" version="1.1" xmlns="http://www.w3.org/2000/svg" xmlns:xlink="http://www.w3.org/1999/xlink">
    <title>002897E2-8CDC-469B-AC48-8EF3A37B995B</title>
    <g id="Page-1" stroke="none" stroke-width="1" fill="none" fill-rule="evenodd">
        <g id="Buttons---Project-Genesis" transform="translate(-221.000000, -994.000000)" fill="#33FF93">
            <g id="Group-2" transform="translate(205.000000, 978.000000)">
                <g id="Icons/zz-build/ÜÏ/Ùpload" transform="translate(16.000000, 16.000000)">
                    <path d="M4.5,15 C4.77614237,15 5,15.2238576 5,15.5 L5,19 L19,19 L19,15.5 C19,15.2238576 19.2238576,15 19.5,15 L20.5,15 C20.7761424,15 21,15.2238576 21,15.5 L21,21 L3,21 L3,15.5 C3,15.2238576 3.22385763,15 3.5,15 L4.5,15 Z M11.3563233,3.24715913 C11.7628321,2.8901515 12.3921294,2.91990213 12.7615068,3.33641103 L12.7615068,3.33641103 L17.1716127,7.6370614 C17.1799871,7.64522794 17.1880723,7.65368583 17.1958534,7.66241946 C17.3795487,7.86860061 17.3613203,8.18465788 17.1551391,8.36835313 L17.1551391,8.36835313 L16.403704,9.03783749 C16.2097966,9.21059759 15.915908,9.20614377 15.7273247,9.0275871 L15.7273247,9.0275871 L13.0146296,6.459 L13.0160455,16.5 C13.0161235,16.7762203 12.7922658,17.0000779 12.5161235,17 L12.5161235,17 L11.5161235,17 C11.2400115,16.999922 11.0161665,16.7761119 11.0160455,16.5 L11.0160455,16.5 L11.0146296,6.478 L8.38408692,9.02081547 C8.19593219,9.2026994 7.89935879,9.20873045 7.70396518,9.03464626 L7.70396518,9.03464626 L6.95262064,8.36524257 C6.94497454,8.35843035 6.93753952,8.35138483 6.93032612,8.34411598 C6.73581286,8.14810781 6.73702473,7.83152764 6.9330329,7.63701438 L6.9330329,7.63701438 L11.2666881,3.33641103 Z" id="State" fill="#171725"></path>
                </g>
            </g>
        </g>
    </g>
</svg>