<?xml version="1.0" encoding="UTF-8"?>
<svg width="24px" height="24px" viewBox="0 0 24 24" version="1.1" xmlns="http://www.w3.org/2000/svg" xmlns:xlink="http://www.w3.org/1999/xlink">
    <title>D2DB0FA8-1133-4A6F-B070-B64BFA265E3A</title>
    <g id="Page-1" stroke="none" stroke-width="1" fill="none" fill-rule="evenodd">
        <g id="Buttons---Project-Genesis" transform="translate(-341.000000, -994.000000)" fill="#33FF93">
            <g id="Group-2" transform="translate(205.000000, 978.000000)">
                <g id="Icons/zz-build/ÜÏ/Dòwnload" transform="translate(136.000000, 16.000000)">
                    <path d="M4.5,15 C4.77614237,15 5,15.2238576 5,15.5 L5,19 L19,19 L19,15.5 C19,15.2238576 19.2238576,15 19.5,15 L20.5,15 C20.7761424,15 21,15.2238576 21,15.5 L21,21 L3,21 L3,15.5 C3,15.2238576 3.22385763,15 3.5,15 L4.5,15 Z M12.5161235,3.00000002 C12.7922658,2.99992209 13.0161235,3.22377971 13.0161235,3.49992209 L13.0160455,3.50000001 L13.0146296,13.541 L15.7273247,10.9724129 C15.915908,10.7938562 16.2097966,10.7894024 16.403704,10.9621625 L17.1551391,11.6316469 C17.3613203,11.8153421 17.3795487,12.1313994 17.1958534,12.3375805 C17.1880723,12.3463142 17.1799871,12.3547721 17.1716127,12.3629386 L12.7615068,16.663589 C12.3921294,17.0800979 11.7628321,17.1098485 11.3563233,16.7528409 L11.2666881,16.663589 L6.9330329,12.3629856 C6.73702473,12.1684724 6.73581286,11.8518922 6.93032612,11.655884 C6.93753952,11.6486152 6.94497454,11.6415697 6.95262064,11.6347574 L7.70396518,10.9653537 C7.89935879,10.7912696 8.19593219,10.7973006 8.38408692,10.9791845 L11.0146296,13.522 L11.0160455,3.50000001 C11.0161665,3.22388809 11.2400115,3.00007796 11.5161235,3.00000002 L12.5161235,3.00000002 Z" id="Combined-Shape" fill="#171725"></path>
                </g>
            </g>
        </g>
    </g>
</svg>