<?xml version="1.0" encoding="UTF-8"?>
<svg width="24px" height="24px" viewBox="0 0 24 24" version="1.1" xmlns="http://www.w3.org/2000/svg" xmlns:xlink="http://www.w3.org/1999/xlink">
    <title>2D539961-23DE-4AD4-B4C6-A94570B44006</title>
    <g id="Page-1" stroke="none" stroke-width="1" fill="none" fill-rule="evenodd">
        <g id="Buttons---Project-Genesis" transform="translate(-381.000000, -994.000000)" fill="#33FF93">
            <g id="Group-2" transform="translate(205.000000, 978.000000)">
                <g id="Icons/zz-build/ÜÏ/Lòng-Àrrow/Primary-Copy" transform="translate(188.000000, 28.000000) scale(-1, 1) translate(-188.000000, -28.000000) translate(176.000000, 16.000000)">
                    <path d="M16.3487138,6.8263007 C16.3577427,6.83432635 16.3664777,6.84267658 16.3749017,6.85133495 L20.6643638,11.2601228 C21.0799134,11.6295002 21.1095955,12.2587975 20.7534102,12.6653063 L20.6643638,12.7549415 L16.374956,17.0872941 C16.1806688,17.2835264 15.8640903,17.2851033 15.667858,17.0908161 C15.6603086,17.0833416 15.6529993,17.0756283 15.6459413,17.067688 L14.9788582,16.3172195 C14.8052914,16.1219569 14.8113091,15.8259862 14.9926694,15.63794 L17.529,13.007 L3.5,13.0075322 C3.22385763,13.0075322 3,12.7836745 3,12.5075322 L3,11.5075322 C3,11.2313898 3.22385763,11.0075322 3.5,11.0075322 L17.548,11.007 L14.9859136,8.29389954 C14.8078768,8.10543117 14.803433,7.81214196 14.9756781,7.61836619 L15.6428272,6.86782344 C15.8262862,6.66143205 16.1423224,6.64284169 16.3487138,6.8263007 Z" id="Combined-Shape" fill="#171725"></path>
                </g>
            </g>
        </g>
    </g>
</svg>