<?xml version="1.0" encoding="UTF-8"?>
<svg width="20px" height="20px" viewBox="0 0 20 20" version="1.1" xmlns="http://www.w3.org/2000/svg" xmlns:xlink="http://www.w3.org/1999/xlink">
    <title>cart-day-active</title>
    <g id="Inputs" stroke="none" stroke-width="1" fill="none" fill-rule="evenodd">
        <g id="Header" transform="translate(-610.000000, -11738.000000)" fill="#171725">
            <path d="M615.994987,11754 C614.892231,11754 614,11754.9 614,11756 C614,11757.1 614.892231,11758 615.994987,11758 C617.097744,11758 618,11757.1 618,11756 C618,11754.9 617.097744,11754 615.994987,11754 Z M625.994987,11754 C624.892231,11754 624,11754.9 624,11756 C624,11757.1 624.892231,11758 625.994987,11758 C627.097744,11758 628,11757.1 628,11756 C628,11754.9 627.097744,11754 625.994987,11754 Z M616.185499,11750.75 L616.215574,11750.63 L616.975104,11749.2579 C617.063177,11749.0987 617.230697,11749 617.412557,11749 L624.58655,11749 L624.58655,11749 C625.338434,11749 626.000091,11748.59 626.340946,11747.97 L629.968104,11741.3994 C630.101558,11741.1576 630.013764,11740.8534 629.772011,11740.72 C629.77147,11740.7197 629.770928,11740.7194 629.770386,11740.7191 L628.893464,11740.2392 C628.651768,11740.107 628.348629,11740.1952 628.215597,11740.4364 L627.353483,11742 L627.353483,11742 L624.72927,11746.7421 C624.641205,11746.9012 624.47367,11747 624.291789,11747 L617.848724,11747 C617.665412,11747 617.498274,11746.8951 617.418589,11746.73 L617.418589,11746.73 L617.418589,11746.73 L615.172962,11742 L614.220576,11740 L613.548561,11738.5738 C613.383528,11738.2235 613.031136,11738 612.643949,11738 L610.5,11738 C610.223858,11738 610,11738.2239 610,11738.5 L610,11739.5 C610,11739.7761 610.223858,11740 610.5,11740 L611.689127,11740 C611.882083,11740 612.057818,11740.111 612.140678,11740.2853 L615.503844,11747.3582 C615.573034,11747.5037 615.567864,11747.6736 615.489956,11747.8147 L614.260676,11750.04 L614.260676,11750.04 C614.100274,11750.32 614.010048,11750.65 614.010048,11751 C614.010048,11752.1 614.912309,11753 616.015072,11753 L627.545216,11753 C627.821358,11753 628.045216,11752.7761 628.045216,11752.5 L628.045216,11751.5 C628.045216,11751.2239 627.821358,11751 627.545216,11751 L616.436127,11751 L616.436127,11751 C616.3058,11751 616.185499,11750.89 616.185499,11750.75 Z" id="cart-day-active"></path>
        </g>
    </g>
</svg>