<?xml version="1.0" encoding="UTF-8"?>
<svg width="20px" height="20px" viewBox="0 0 20 20" version="1.1" xmlns="http://www.w3.org/2000/svg" xmlns:xlink="http://www.w3.org/1999/xlink">
    <title>cart-night-active</title>
    <g id="Inputs" stroke="none" stroke-width="1" fill="none" fill-rule="evenodd">
        <g id="Header" transform="translate(-804.000000, -11735.000000)" fill="#FFFFFF">
            <path d="M809.994987,11751 C808.892231,11751 808,11751.9 808,11753 C808,11754.1 808.892231,11755 809.994987,11755 C811.097744,11755 812,11754.1 812,11753 C812,11751.9 811.097744,11751 809.994987,11751 Z M819.994987,11751 C818.892231,11751 818,11751.9 818,11753 C818,11754.1 818.892231,11755 819.994987,11755 C821.097744,11755 822,11754.1 822,11753 C822,11751.9 821.097744,11751 819.994987,11751 Z M810.185499,11747.75 L810.215574,11747.63 L810.975104,11746.2579 C811.063177,11746.0987 811.230697,11746 811.412557,11746 L818.58655,11746 L818.58655,11746 C819.338434,11746 820.000091,11745.59 820.340946,11744.97 L823.968104,11738.3994 C824.101558,11738.1576 824.013764,11737.8534 823.772011,11737.72 C823.77147,11737.7197 823.770928,11737.7194 823.770386,11737.7191 L822.893464,11737.2392 C822.651768,11737.107 822.348629,11737.1952 822.215597,11737.4364 L821.353483,11739 L821.353483,11739 L818.72927,11743.7421 C818.641205,11743.9012 818.47367,11744 818.291789,11744 L811.848724,11744 C811.665412,11744 811.498274,11743.8951 811.418589,11743.73 L811.418589,11743.73 L811.418589,11743.73 L809.172962,11739 L808.220576,11737 L807.548561,11735.5738 C807.383528,11735.2235 807.031136,11735 806.643949,11735 L804.5,11735 C804.223858,11735 804,11735.2239 804,11735.5 L804,11736.5 C804,11736.7761 804.223858,11737 804.5,11737 L805.689127,11737 C805.882083,11737 806.057818,11737.111 806.140678,11737.2853 L809.503844,11744.3582 C809.573034,11744.5037 809.567864,11744.6736 809.489956,11744.8147 L808.260676,11747.04 L808.260676,11747.04 C808.100274,11747.32 808.010048,11747.65 808.010048,11748 C808.010048,11749.1 808.912309,11750 810.015072,11750 L821.545216,11750 C821.821358,11750 822.045216,11749.7761 822.045216,11749.5 L822.045216,11748.5 C822.045216,11748.2239 821.821358,11748 821.545216,11748 L810.436127,11748 L810.436127,11748 C810.3058,11748 810.185499,11747.89 810.185499,11747.75 Z" id="cart-night-active"></path>
        </g>
    </g>
</svg>