<?xml version="1.0" encoding="UTF-8"?>
<svg width="20px" height="20px" viewBox="0 0 20 20" version="1.1" xmlns="http://www.w3.org/2000/svg" xmlns:xlink="http://www.w3.org/1999/xlink">
    <title>cart-night-inactive</title>
    <g id="Inputs" stroke="none" stroke-width="1" fill="none" fill-rule="evenodd">
        <g id="Header" transform="translate(-804.000000, -11599.000000)" fill="#C4C4CA">
            <path d="M809.994987,11615 C808.892231,11615 808,11615.9 808,11617 C808,11618.1 808.892231,11619 809.994987,11619 C811.097744,11619 812,11618.1 812,11617 C812,11615.9 811.097744,11615 809.994987,11615 Z M819.994987,11615 C818.892231,11615 818,11615.9 818,11617 C818,11618.1 818.892231,11619 819.994987,11619 C821.097744,11619 822,11618.1 822,11617 C822,11615.9 821.097744,11615 819.994987,11615 Z M810.185499,11611.75 L810.215574,11611.63 L810.975104,11610.2579 C811.063177,11610.0987 811.230697,11610 811.412557,11610 L818.58655,11610 L818.58655,11610 C819.338434,11610 820.000091,11609.59 820.340946,11608.97 L823.968104,11602.3994 C824.101558,11602.1576 824.013764,11601.8534 823.772011,11601.72 C823.77147,11601.7197 823.770928,11601.7194 823.770386,11601.7191 L822.893464,11601.2392 C822.651768,11601.107 822.348629,11601.1952 822.215597,11601.4364 L821.353483,11603 L821.353483,11603 L818.72927,11607.7421 C818.641205,11607.9012 818.47367,11608 818.291789,11608 L811.848724,11608 C811.665412,11608 811.498274,11607.8951 811.418589,11607.73 L811.418589,11607.73 L811.418589,11607.73 L809.172962,11603 L808.220576,11601 L807.548561,11599.5738 C807.383528,11599.2235 807.031136,11599 806.643949,11599 L804.5,11599 C804.223858,11599 804,11599.2239 804,11599.5 L804,11600.5 C804,11600.7761 804.223858,11601 804.5,11601 L805.689127,11601 C805.882083,11601 806.057818,11601.111 806.140678,11601.2853 L809.503844,11608.3582 C809.573034,11608.5037 809.567864,11608.6736 809.489956,11608.8147 L808.260676,11611.04 L808.260676,11611.04 C808.100274,11611.32 808.010048,11611.65 808.010048,11612 C808.010048,11613.1 808.912309,11614 810.015072,11614 L821.545216,11614 C821.821358,11614 822.045216,11613.7761 822.045216,11613.5 L822.045216,11612.5 C822.045216,11612.2239 821.821358,11612 821.545216,11612 L810.436127,11612 L810.436127,11612 C810.3058,11612 810.185499,11611.89 810.185499,11611.75 Z" id="cart-night-inactive"></path>
        </g>
    </g>
</svg>