{
   "externalizer.domains": [
      "local http://localhost:4502",
      "author http://localhost:4502",
      "publish http://localhost:4503",
      "app-domain http://localhost:4502",
      "app-local-domain http://localhost:4502"
   ]
}
