{
  "org.apache.sling.commons.log.names": [
    "com.techcombank.core.listeners.UserLoginResourceChangeListener"
  ],
  "org.apache.sling.commons.log.level": "INFO",
  "org.apache.sling.commons.log.file": "logs/tcb-admin-login.log",
  "org.apache.sling.commons.log.additiv": "false",
  "org.apache.sling.commons.log.pattern": "{0,date,dd.MM.yyyy HH:mm:ss.SSS} *{4}* [{2}] {3} {5}"
}
