<?xml version="1.0" standalone="no"?>
<!DOCTYPE svg PUBLIC "-//W3C//DTD SVG 1.1//EN" "http://www.w3.org/Graphics/SVG/1.1/DTD/svg11.dtd" >
<svg xmlns="http://www.w3.org/2000/svg">
<metadata>Generated by IcoMoon</metadata>
<defs>
<font id="icomoon" horiz-adv-x="1024">
<font-face units-per-em="1024" ascent="960" descent="-64" />
<missing-glyph horiz-adv-x="1024" />
<glyph unicode="&#x20;" horiz-adv-x="512" d="" />
<glyph unicode="&#xe900;" glyph-name="dropdown" d="M256 541.867c0-21.333 59.733-89.6 128-157.867l128-123.733 136.533 136.533c157.867 153.6 128 243.2-29.867 93.867l-106.667-98.133-98.133 89.6c-102.4 98.133-157.867 119.467-157.867 59.733z" />
</font></defs></svg>