<?xml version="1.0" encoding="UTF-8"?>
<svg width="8px" height="14px" viewBox="0 0 8 14" version="1.1" xmlns="http://www.w3.org/2000/svg" xmlns:xlink="http://www.w3.org/1999/xlink">
    <title>Icons/UI/Arrow</title>
    <g id="Page-1" stroke="none" stroke-width="1" fill="none" fill-rule="evenodd">
        <g id="Desktop-HD" transform="translate(-1766.000000, -221.000000)" fill="#C4C4C7" fill-rule="nonzero" stroke="#C4C4C7" stroke-width="0.25">
            <g id="Group" transform="translate(1762.500000, 223.000000)">
                <g id="Shape" transform="translate(7.500000, 5.000000) rotate(-90.000000) translate(-7.500000, -5.000000) ">
                    <path d="M7.499518,5.50106976 L3.36652463,1.48109393 C3.17439715,1.29422021 2.86909249,1.29207497 2.67435795,1.47623037 L1.7447604,2.35532663 C1.54412446,2.54506284 1.53528847,2.861522 1.72502468,3.06215794 C1.73013214,3.06755881 1.7353594,3.0728451 1.74070256,3.07801288 L7.15245323,8.31212728 C7.34606149,8.49938051 7.6532053,8.49961952 7.84710475,8.31266782 L13.2776463,3.07671185 C13.4764375,2.8850437 13.4822118,2.56851388 13.2905437,2.3697227 C13.2856124,2.36460819 13.2805727,2.35959935 13.275428,2.35469962 L12.3543592,1.47749121 C12.1602615,1.29263631 11.8549243,1.29371971 11.6621433,1.47994735 L7.499518,5.50106976 L7.499518,5.50106976 Z"></path>
                </g>
            </g>
        </g>
    </g>
</svg>